%YAML 1.1
%TAG !u! tag:unity3d.com,2011:
--- !u!114 &11400000
MonoBehaviour:
  m_ObjectHideFlags: 0
  m_CorrespondingSourceObject: {fileID: 0}
  m_PrefabInstance: {fileID: 0}
  m_PrefabAsset: {fileID: 0}
  m_GameObject: {fileID: 0}
  m_Enabled: 1
  m_EditorHideFlags: 0
  m_Script: {fileID: 11500000, guid: f0263c470ab0be94c991a8177b55dac0, type: 3}
  m_Name: EAB188D3-922D-420E-9049-7B8918060F17
  m_EditorClassIdentifier: 
  objectName: nati2
  id: 3695231839
  guid: EAB188D3-922D-420E-9049-7B8918060F17
